[gd_scene load_steps=8 format=2]

[ext_resource path="res://PressStart2P-Regular.ttf" type="DynamicFontData" id=2]

[sub_resource type="DynamicFont" id=7]
size = 20
outline_size = 2
outline_color = Color( 0, 0, 0, 1 )
font_data = ExtResource( 2 )

[sub_resource type="SpatialMaterial" id=10]
albedo_color = Color( 0.988235, 0.980392, 0.980392, 1 )
emission_enabled = true
emission = Color( 0, 0, 0, 1 )
emission_energy = 16.0
emission_operator = 0
emission_on_uv2 = false

[sub_resource type="CubeMesh" id=8]

[sub_resource type="SpatialMaterial" id=9]
flags_albedo_tex_force_srgb = true
albedo_color = Color( 1, 0.0784314, 0.0784314, 1 )

[sub_resource type="Animation" id=4]
length = 0.2
tracks/0/type = "value"
tracks/0/path = NodePath("TextManager/Label:rect_scale")
tracks/0/interp = 1
tracks/0/loop_wrap = true
tracks/0/imported = false
tracks/0/enabled = true
tracks/0/keys = {
"times": PoolRealArray( 0, 0.1, 0.2 ),
"transitions": PoolRealArray( 1, 1, 1 ),
"update": 0,
"values": [ Vector2( 1, 1 ), Vector2( 1.5, 1.5 ), Vector2( 0.01, 0.01 ) ]
}
tracks/1/type = "value"
tracks/1/path = NodePath("MeshInstance:scale")
tracks/1/interp = 1
tracks/1/loop_wrap = true
tracks/1/imported = false
tracks/1/enabled = true
tracks/1/keys = {
"times": PoolRealArray( 0, 0.2 ),
"transitions": PoolRealArray( 1, 1 ),
"update": 0,
"values": [ Vector3( 1, 1.5, 1 ), Vector3( 0.01, 0.01, 0.01 ) ]
}

[sub_resource type="Animation" id=5]
length = 0.2
tracks/0/type = "value"
tracks/0/path = NodePath("TextManager/Label:rect_scale")
tracks/0/interp = 1
tracks/0/loop_wrap = true
tracks/0/imported = false
tracks/0/enabled = true
tracks/0/keys = {
"times": PoolRealArray( 0, 0.1, 0.2 ),
"transitions": PoolRealArray( 1, 1, 1 ),
"update": 0,
"values": [ Vector2( 1, 1 ), Vector2( 1.25, 1.25 ), Vector2( 1, 1 ) ]
}

[node name="Enemy" type="Spatial"]

[node name="TextManager" type="Position3D" parent="."]
transform = Transform( 1, 0, 0, 0, 1, 0, 0, 0, 1, 0, 1.39016, 0 )

[node name="Label" type="RichTextLabel" parent="TextManager"]
margin_right = 168.0
margin_bottom = 55.0
rect_pivot_offset = Vector2( 84, 27 )
rect_clip_content = false
custom_fonts/normal_font = SubResource( 7 )
bbcode_enabled = true
bbcode_text = "aaaaaaaa"
text = "aaaaaaaa"
__meta__ = {
"_edit_use_anchors_": false
}

[node name="MeshInstance" type="MeshInstance" parent="."]
transform = Transform( 1, 0, 0, 0, 1.5, 0, 0, 0, 1, 0, 0, 0 )
material_override = SubResource( 10 )
mesh = SubResource( 8 )
material/0 = SubResource( 9 )

[node name="AnimationPlayer" type="AnimationPlayer" parent="."]
anims/fullyTyped = SubResource( 4 )
anims/letterTyped = SubResource( 5 )
