[gd_resource type="Environment" load_steps=2 format=2]

[sub_resource type="ProceduralSky" id=1]
ground_bottom_color = Color( 0, 0, 0, 1 )
ground_horizon_color = Color( 0, 0, 0, 1 )

[resource]
background_mode = 2
background_sky = SubResource( 1 )
ambient_light_color = Color( 0.972549, 0.956863, 0.960784, 1 )
ambient_light_energy = 0.38
