; Engine configuration file.
; It's best edited using the editor UI and not directly,
; since the parameters that go here are not all obvious.
;
; Format:
;   [section] ; section goes between []
;   param=value ; assign values to parameters

config_version=4

_global_script_classes=[ {
"base": "Spatial",
"class": "Enemy",
"language": "GDScript",
"path": "res://enemy/enemy.gd"
}, {
"base": "Node",
"class": "StateMachine",
"language": "GDScript",
"path": "res://scripts/StateMachine.gd"
} ]
_global_script_class_icons={
"Enemy": "",
"StateMachine": ""
}

[application]

config/name="TreeExplorer"
run/main_scene="res://MainMenu.tscn"
boot_splash/image="res://assets/splashscreen/boot_image.png"
boot_splash/bg_color=Color( 0, 0, 0, 1 )
config/icon="res://icon.png"

[autoload]

DialogueSystem="*res://dialoguesystem/dialogue_system.gd"
Transition="*res://transition/transition.gd"
Globals="*res://scripts/globals.gd"

[display]

window/size/width=1920
window/size/height=1080
window/size/fullscreen=true

[input]

ultimate={
"deadzone": 0.5,
"events": [ Object(InputEventKey,"resource_local_to_scene":false,"resource_name":"","device":0,"alt":false,"shift":false,"control":false,"meta":false,"command":false,"pressed":false,"scancode":32,"unicode":0,"echo":false,"script":null)
 ]
}
pause={
"deadzone": 0.5,
"events": [ Object(InputEventKey,"resource_local_to_scene":false,"resource_name":"","device":0,"alt":false,"shift":false,"control":false,"meta":false,"command":false,"pressed":false,"scancode":16777217,"unicode":0,"echo":false,"script":null)
 ]
}

[rendering]

environment/default_clear_color=Color( 0, 0, 0, 1 )
environment/default_environment="res://default_env.tres"
