[gd_scene load_steps=5 format=2]

[ext_resource path="res://player/projectile.gd" type="Script" id=1]
[ext_resource path="res://assets/player/magic.tscn" type="PackedScene" id=2]

[sub_resource type="SphereMesh" id=1]

[sub_resource type="SphereShape" id=2]

[node name="Projectile" type="Area"]
script = ExtResource( 1 )

[node name="MeshInstance" type="MeshInstance" parent="."]
visible = false
mesh = SubResource( 1 )
material/0 = null

[node name="CollisionShape" type="CollisionShape" parent="."]
shape = SubResource( 2 )

[node name="magic" parent="." instance=ExtResource( 2 )]
transform = Transform( -1.62921e-07, 0, 1, 0, 1, 0, -1, 0, -1.62921e-07, 0, 0, 0 )
